{"page":1,"total_results":1173,"total_pages":59,"results":[{"vote_count":4342,"id":64688,"video":false,"vote_average":6.7,"title":"21 Jump Street","popularity":31.157259,"poster_path":"\/mH6xazzfGdszadd1Xy9JgdZYvn1.jpg","original_language":"en","original_title":"21 Jump Street","genre_ids":[28,35,80],"backdrop_path":"\/uOpFdld7CIifSEoGuRVgWqaeyFs.jpg","adult":false,"overview":"In high school, Schmidt was a dork and Jenko was the popular jock. After graduation, both of them joined the police force and ended up as partners riding bicycles in the city park. Since they are young and look like high school students, they are assigned to an undercover unit to infiltrate a drug ring that is supplying high school students synthetic drugs.","release_date":"2012-03-12"},{"vote_count":7268,"id":106646,"video":false,"vote_average":7.9,"title":"The Wolf of Wall Street","popularity":53.644861,"poster_path":"\/vK1o5rZGqxyovfIhZyMELhk03wO.jpg","original_language":"en","original_title":"The Wolf of Wall Street","genre_ids":[80,18,35],"backdrop_path":"\/dYtAyg4vD88hIfrR1VKDnVGhnE6.jpg","adult":false,"overview":"A New York stockbroker refuses to cooperate in a large securities fraud case involving corruption on Wall Street, corporate banking world and mob infiltration. Based on Jordan Belfort's autobiography.","release_date":"2013-12-25"},{"vote_count":3531,"id":187017,"video":false,"vote_average":6.9,"title":"22 Jump Street","popularity":28.926076,"poster_path":"\/gNlV5FhDZ1PjxSv2aqTPS30GEon.jpg","original_language":"en","original_title":"22 Jump Street","genre_ids":[80,35,28],"backdrop_path":"\/9NmTVqQ9f2ltecPZgXIj4Bk2c6s.jpg","adult":false,"overview":"After making their way through high school (twice), big changes are in store for officers Schmidt and Jenko when they go deep undercover at a local college. But when Jenko meets a kindred spirit on the football team, and Schmidt infiltrates the bohemian art major scene, they begin to question their partnership. Now they don't have to just crack the case - they have to figure out if they can have a mature relationship. If these two overgrown adolescents can grow from freshmen into real men, college might be the best thing that ever happened to them.","release_date":"2014-06-05"},{"vote_count":724,"id":369557,"video":false,"vote_average":8,"title":"Sing Street","popularity":10.244486,"poster_path":"\/s0C78plmx3dFcO3WMnoXCz56FiN.jpg","original_language":"en","original_title":"Sing Street","genre_ids":[35,10749,18,10402],"backdrop_path":"\/9j4UaRypr19wz0BOofwvkPRm1Se.jpg","adult":false,"overview":"A boy growing up in Dublin during the 1980s escapes his strained family life by starting a band to impress the mysterious girl he likes.","release_date":"2016-03-11"},{"vote_count":716,"id":8923,"video":false,"vote_average":7.1,"title":"Green Street Hooligans","popularity":20.937516,"poster_path":"\/z3LC4kI8azbeuHRGgDdWo6VBCdX.jpg","original_language":"en","original_title":"Green Street Hooligans","genre_ids":[80,18],"backdrop_path":"\/qG2NKjGLsFxohQYUWcjgI1fsuzz.jpg","adult":false,"overview":"After being wrongfully expelled from Harvard University, American Matt Buckner flees to his sister's home in England. Once there, he is befriended by her charming and dangerous brother-in-law, Pete Dunham, and introduced to the underworld of British football hooliganism. Matt learns to stand his ground through a friendship that develops against the backdrop of this secret and often violent world. 'Green Street Hooligans' is a story of loyalty, trust and the sometimes brutal consequences of living close to the edge.","release_date":"2005-09-09"},{"vote_count":612,"id":10673,"video":false,"vote_average":7,"title":"Wall Street","popularity":9.448824,"poster_path":"\/fC9zRkJjgemBEmubrZaWXtC4FcN.jpg","original_language":"en","original_title":"Wall Street","genre_ids":[80,18],"backdrop_path":"\/qCeqEDkvhmDJ5nvT7IIBU7kUI5a.jpg","adult":false,"overview":"A young and impatient stockbroker is willing to do anything to get to the top, including trading on illegal inside information taken through a ruthless and greedy corporate raider whom takes the youth under his wing.","release_date":"1987-12-10"},{"vote_count":383,"id":1266,"video":false,"vote_average":6.3,"title":"Street Kings","popularity":9.271903,"poster_path":"\/2h2mThLae2QZLprtovKXRBgMM1E.jpg","original_language":"en","original_title":"Street Kings","genre_ids":[28,80,18,53],"backdrop_path":"\/jPXTVBHrYxGfOWf7zoAEpz7VXy9.jpg","adult":false,"overview":"Tom Ludlow is a disillusioned L.A. Police Officer, rarely playing by the rules and haunted by the death of his wife. When evidence implicates him in the execution of a fellow officer, he is forced to go up against the cop culture he's been a part of his entire career, ultimately leading him to question the loyalties of everyone around him.","release_date":"2008-04-10"},{"vote_count":1326,"id":377,"video":false,"vote_average":7.2,"title":"A Nightmare on Elm Street","popularity":25.0751,"poster_path":"\/sXFlyjfWv544uKOJmPd2vVsaFm9.jpg","original_language":"en","original_title":"A Nightmare on Elm Street","genre_ids":[27],"backdrop_path":"\/3G7Xf2drr2u1jhOPxGR18pl39PX.jpg","adult":false,"overview":"Teenagers in a small town are dropping like flies, apparently in the grip of mass hysteria causing their suicides. A cop's daughter, Nancy Thompson (Heather Langenkamp) traces the cause to child molester Fred Krueger (Robert Englund), who was burned alive by angry parents many years before. Krueger has now come back in the dreams of his killers' children, claiming their lives as his revenge. Nancy and her boyfriend, Glen (Johnny Depp), must devise a plan to lure the monster out of the realm of nightmares and into the real world...","release_date":"1984-11-14"},{"vote_count":364,"id":11667,"video":false,"vote_average":4.1,"title":"Street Fighter","popularity":7.106699,"poster_path":"\/1Q5YdK91oJBXJcbCuZhKXeY4vP1.jpg","original_language":"en","original_title":"Street Fighter","genre_ids":[28,12,53],"backdrop_path":"\/kx9hVXtX8iSbbCwCbuUovbKrWyH.jpg","adult":false,"overview":"Col. Guile and various other martial arts heroes fight against the tyranny of Dictator M. Bison and his cohorts.","release_date":"1994-12-22"},{"vote_count":24,"id":17667,"video":false,"vote_average":7,"title":"Beat Street","popularity":6.751248,"poster_path":"\/g3z0GJhLjBwCkPXJ0XARcP6dEBq.jpg","original_language":"en","original_title":"Beat Street","genre_ids":[18,10402],"backdrop_path":"\/iI2eZNZhNyPcZfQr0oJmt0KmBKn.jpg","adult":false,"overview":"An aspiring DJ, from the South Bronx, and his best friend, a promoter, try to get into show business by exposing people to hip-hop music and culture.","release_date":"1984-06-08"},{"vote_count":233,"id":10510,"video":false,"vote_average":6.5,"title":"Miracle on 34th Street","popularity":11.391219,"poster_path":"\/iuI31j8DM4TOxJTZeumG0S4npPU.jpg","original_language":"en","original_title":"Miracle on 34th Street","genre_ids":[14,18,10751],"backdrop_path":"\/5Vt7uCfZjqoBN8gPPPf6qHjFy9A.jpg","adult":false,"overview":"A little girl discovers dreams can come true if you really believe. Six-year-old Susan Walker has doubts about childhood's most enduring miracle - Santa Claus. Her mother told her the 'secret' about Santa a long time ago. But after meeting a special department store Santa who's convinced he's the real thing, Susan is given the most precious gift of all something to believe in.","release_date":"1994-11-18"},{"vote_count":0,"id":382808,"video":false,"vote_average":0,"title":"Meteor Street","popularity":3.092575,"poster_path":"\/npHXSo64n7hJ4b387qOWTnlnTil.jpg","original_language":"de","original_title":"Meteorstraße","genre_ids":[18],"backdrop_path":null,"adult":false,"overview":"Mohammed, an 18-year old refugee, lives with his chaotic older brother Lakhdar in a rundown apartment in Berlin. Several years after his family fled the war in Lebanon and moved to Berlin, the sensitive young man still needs to set foot in the harsh male environment, trying to find his place between his brother and his german motorcycle workshop colleagues.","release_date":"2016-02-13"},{"vote_count":73,"id":17058,"video":false,"vote_average":7.7,"title":"Scarlet Street","popularity":5.380834,"poster_path":"\/xA0DAwYIPqeKi0PSGywfC6LePPN.jpg","original_language":"en","original_title":"Scarlet Street","genre_ids":[18],"backdrop_path":"\/qhMPNDGgt3J5uAPNBmADWvUJljr.jpg","adult":false,"overview":"A man in mid-life crisis befriends a young woman after rescuing her from an attack. She believes he is rich and her boyfriend persuades her to con him out of his fortune.","release_date":"1945-12-28"},{"vote_count":75,"id":22172,"video":false,"vote_average":5.7,"title":"Street Trash","popularity":5.281946,"poster_path":"\/yGWFe3vRPNfUnlnTxZhSJ2LVRvZ.jpg","original_language":"en","original_title":"Street Trash","genre_ids":[35,27],"backdrop_path":"\/yfexKj0LSfsKTxVZkdZoa7oDUPs.jpg","adult":false,"overview":"When a liquor store owner finds a case of \"Tenafly Viper\" in his cellar, he decides to sell it to the local hobos at one dollar a bottle, unaware of its true properties. The drinks causes its consumers to melt, very messily.","release_date":"1987-05-09"},{"vote_count":5,"id":409564,"video":false,"vote_average":5.4,"title":"Street","popularity":1.7669,"poster_path":"\/wky5GQSLwTV70g8ebN7gq7Pf9ft.jpg","original_language":"en","original_title":"Street","genre_ids":[28],"backdrop_path":"\/yBBCZwTVzblZ5IEz8r9YS3IQjsb.jpg","adult":false,"overview":"Remo Street is a young fighter who comes from a world where nothing is easy, so when he is faced with the opportunity to train with a world class coach, he has to choose between the long hard road to honor and glory, or succumbing to a brutal future as a cage fighter for the Russian Mafia.","release_date":"2015-10-30"},{"vote_count":158,"id":11881,"video":false,"vote_average":7.4,"title":"Miracle on 34th Street","popularity":8.928156,"poster_path":"\/v9rDydAqGrhFtXpvMXjVDmw7atZ.jpg","original_language":"en","original_title":"Miracle on 34th Street","genre_ids":[18,10751],"backdrop_path":"\/i90947b0zLbH1P4qjAxqiQdRfiZ.jpg","adult":false,"overview":"Kris Kringle, seemingly the embodiment of Santa Claus, is asked to portray the jolly old fellow at Macy's following his performance in the Thanksgiving Day parade. His portrayal is so complete many begin to question if he truly is Santa Claus while others question his sanity.","release_date":"1947-06-04"},{"vote_count":168,"id":43552,"video":false,"vote_average":4.8,"title":"Vanishing on 7th Street","popularity":7.853943,"poster_path":"\/u28Utjvana3RxQmOeBT4FTTwm12.jpg","original_language":"en","original_title":"Vanishing on 7th Street","genre_ids":[9648,27,53],"backdrop_path":"\/hmZYvFGuMu5uVY7OaPYy63VboT2.jpg","adult":false,"overview":"A mysterious global blackout yields countless populations to simply vanish, leaving only their clothes and possessions behind. A small handful of survivors band together in a dimly-lit tavern on 7th Street, struggling to combat the apocalyptic horror. Realizing they may in fact be the last people on earth, a dark shadow hones in on them alone.","release_date":"2010-09-11"},{"vote_count":849,"id":23437,"video":false,"vote_average":5.5,"title":"A Nightmare on Elm Street","popularity":11.558288,"poster_path":"\/zPdMcikD993AQRd92iNv0Dxb67T.jpg","original_language":"en","original_title":"A Nightmare on Elm Street","genre_ids":[27,9648,53],"backdrop_path":"\/17vWkOFksf8479W5kHRto6sR98f.jpg","adult":false,"overview":"The film that brings back horror icon Freddy Krueger as a darker and more sinister character than ever before. While Freddy is on the prowl a group of teenagers being stalked soon learn they all have a common factor making them targets for this twisted killer.","release_date":"2010-04-30"},{"vote_count":215,"id":184125,"video":false,"vote_average":5.8,"title":"Assault on Wall Street","popularity":7.353938,"poster_path":"\/5MPJ0anWmqo29DCbUMgE2ZPzGJx.jpg","original_language":"en","original_title":"Assault on Wall Street","genre_ids":[18,53,28],"backdrop_path":"\/13aAN3iqwiYQ8TAKUCDgHl1DNxU.jpg","adult":false,"overview":"Jim is an average New Yorker living a peaceful life with a well paying job and a loving family. Suddenly, everything changes when the economy crashes causing Jim to lose everything. Filled with anger and rage, Jim snaps and goes to extreme lengths to seek revenge for the life taken from him.","release_date":"2013-06-30"},{"vote_count":240,"id":404378,"video":false,"vote_average":7.5,"title":"A Street Cat Named Bob","popularity":11.057362,"poster_path":"\/amJU2TxLHytgnd7xyrNZURS6crk.jpg","original_language":"en","original_title":"A Street Cat Named Bob","genre_ids":[18,10751,35],"backdrop_path":"\/f6PEWTJt8nBlAzSuXuG6YvFBAQm.jpg","adult":false,"overview":"Based on the international best selling book. The true feel good story of how James Bowen, a busker and recovering drug addict, had his life transformed when he met a stray ginger cat.","release_date":"2016-11-04"}]}